{
  "android": {
    "link[rel='manifest'][href$='manifest.json']": "<link rel='manifest' href='manifest.json'>",
    "meta[name='mobile-web-app-capable']": "<meta name='mobile-web-app-capable' content='yes'>",
    "meta[name='theme-color']": "<meta name='theme-color' content='#FFFFFF'>",
    "meta[name='application-name']": "<meta name='application-name' content='Application'>"
  },
  "appleIcon": {
    "link[rel='apple-touch-icon'][sizes='57x57'][href$='apple-touch-icon-57x57.png']": "<link rel='apple-touch-icon' sizes='57x57' href='apple-touch-icon-57x57.png'>",
    "link[rel='apple-touch-icon'][sizes='60x60'][href$='apple-touch-icon-60x60.png']": "<link rel='apple-touch-icon' sizes='60x60' href='apple-touch-icon-60x60.png'>",
    "link[rel='apple-touch-icon'][sizes='72x72'][href$='apple-touch-icon-72x72.png']": "<link rel='apple-touch-icon' sizes='72x72' href='apple-touch-icon-72x72.png'>",
    "link[rel='apple-touch-icon'][sizes='76x76'][href$='apple-touch-icon-76x76.png']": "<link rel='apple-touch-icon' sizes='76x76' href='apple-touch-icon-76x76.png'>",
    "link[rel='apple-touch-icon'][sizes='114x114'][href$='apple-touch-icon-114x114.png']": "<link rel='apple-touch-icon' sizes='114x114' href='apple-touch-icon-114x114.png'>",
    "link[rel='apple-touch-icon'][sizes='120x120'][href$='apple-touch-icon-120x120.png']": "<link rel='apple-touch-icon' sizes='120x120' href='apple-touch-icon-120x120.png'>",
    "link[rel='apple-touch-icon'][sizes='144x144'][href$='apple-touch-icon-144x144.png']": "<link rel='apple-touch-icon' sizes='144x144' href='apple-touch-icon-144x144.png'>",
    "link[rel='apple-touch-icon'][sizes='152x152'][href$='apple-touch-icon-152x152.png']": "<link rel='apple-touch-icon' sizes='152x152' href='apple-touch-icon-152x152.png'>",
    "link[rel='apple-touch-icon'][sizes='180x180'][href$='apple-touch-icon-180x180.png']": "<link rel='apple-touch-icon' sizes='180x180' href='apple-touch-icon-180x180.png'>",
    "meta[name='apple-mobile-web-app-capable']": "<meta name='apple-mobile-web-app-capable' content='yes'>",
    "meta[name='apple-mobile-web-app-status-bar-style']": "<meta name='apple-mobile-web-app-status-bar-style' content='black-translucent'>",
    "meta[name='apple-mobile-web-app-title']": "<meta name='apple-mobile-web-app-title' content='Application'>"
  },
  "appleStartup": {
    "link[rel='apple-touch-startup-image'][media='(device-width: 320px) and (device-height: 480px) and (-webkit-device-pixel-ratio: 1)'][href$='apple-touch-startup-image-320x460.png']": "<link rel='apple-touch-startup-image' media='(device-width: 320px) and (device-height: 480px) and (-webkit-device-pixel-ratio: 1)' href='apple-touch-startup-image-320x460.png'>",
    "link[rel='apple-touch-startup-image'][media='(device-width: 320px) and (device-height: 480px) and (-webkit-device-pixel-ratio: 2)'][href$='apple-touch-startup-image-640x920.png']": "<link rel='apple-touch-startup-image' media='(device-width: 320px) and (device-height: 480px) and (-webkit-device-pixel-ratio: 2)' href='apple-touch-startup-image-640x920.png'>",
    "link[rel='apple-touch-startup-image'][media='(device-width: 320px) and (device-height: 568px) and (-webkit-device-pixel-ratio: 2)'][href$='apple-touch-startup-image-640x1096.png']": "<link rel='apple-touch-startup-image' media='(device-width: 320px) and (device-height: 568px) and (-webkit-device-pixel-ratio: 2)' href='apple-touch-startup-image-640x1096.png'>",
    "link[rel='apple-touch-startup-image'][media='(device-width: 375px) and (device-height: 667px) and (-webkit-device-pixel-ratio: 2)'][href$='apple-touch-startup-image-750x1294.png']": "<link rel='apple-touch-startup-image' media='(device-width: 375px) and (device-height: 667px) and (-webkit-device-pixel-ratio: 2)' href='apple-touch-startup-image-750x1294.png'>",
    "link[rel='apple-touch-startup-image'][media='(device-width: 414px) and (device-height: 736px) and (orientation: landscape) and (-webkit-device-pixel-ratio: 3)'][href$='apple-touch-startup-image-1182x2208.png']": "<link rel='apple-touch-startup-image' media='(device-width: 414px) and (device-height: 736px) and (orientation: landscape) and (-webkit-device-pixel-ratio: 3)' href='apple-touch-startup-image-1182x2208.png'>",
    "link[rel='apple-touch-startup-image'][media='(device-width: 414px) and (device-height: 736px) and (orientation: portrait) and (-webkit-device-pixel-ratio: 3)'][href$='apple-touch-startup-image-1242x2148.png']": "<link rel='apple-touch-startup-image' media='(device-width: 414px) and (device-height: 736px) and (orientation: portrait) and (-webkit-device-pixel-ratio: 3)' href='apple-touch-startup-image-1242x2148.png'>",
    "link[rel='apple-touch-startup-image'][media='(device-width: 768px) and (device-height: 1024px) and (orientation: landscape) and (-webkit-device-pixel-ratio: 1)'][href$='apple-touch-startup-image-748x1024.png']": "<link rel='apple-touch-startup-image' media='(device-width: 768px) and (device-height: 1024px) and (orientation: landscape) and (-webkit-device-pixel-ratio: 1)' href='apple-touch-startup-image-748x1024.png'>",
    "link[rel='apple-touch-startup-image'][media='(device-width: 768px) and (device-height: 1024px) and (orientation: portrait) and (-webkit-device-pixel-ratio: 1)'][href$='apple-touch-startup-image-768x1004.png']": "<link rel='apple-touch-startup-image' media='(device-width: 768px) and (device-height: 1024px) and (orientation: portrait) and (-webkit-device-pixel-ratio: 1)' href='apple-touch-startup-image-768x1004.png'>",
    "link[rel='apple-touch-startup-image'][media='(device-width: 768px) and (device-height: 1024px) and (orientation: landscape) and (-webkit-device-pixel-ratio: 2)'][href$='apple-touch-startup-image-1496x2048.png']": "<link rel='apple-touch-startup-image' media='(device-width: 768px) and (device-height: 1024px) and (orientation: landscape) and (-webkit-device-pixel-ratio: 2)' href='apple-touch-startup-image-1496x2048.png'>",
    "link[rel='apple-touch-startup-image'][media='(device-width: 768px) and (device-height: 1024px) and (orientation: portrait) and (-webkit-device-pixel-ratio: 2)'][href$='apple-touch-startup-image-1536x2008.png']": "<link rel='apple-touch-startup-image' media='(device-width: 768px) and (device-height: 1024px) and (orientation: portrait) and (-webkit-device-pixel-ratio: 2)' href='apple-touch-startup-image-1536x2008.png'>"
  },
  "coast": {
    "link[rel='icon'][type='image/png'][sizes='228x228'][href$='coast-228x228.png']": "<link rel='icon' type='image/png' sizes='228x228' href='coast-228x228.png'>"
  },
  "favicons": {
    "link[rel='icon'][type='image/png'][sizes='32x32'][href$='favicon-32x32.png']": "<link rel='icon' type='image/png' sizes='32x32' href='favicon-32x32.png'>",
    "link[rel='icon'][type='image/png'][sizes='16x16'][href$='favicon-16x16.png']": "<link rel='icon' type='image/png' sizes='16x16' href='favicon-16x16.png'>",
    "link[rel='shortcut icon'][href$='favicon.ico']": "<link rel='shortcut icon' href='favicon.ico'>"
  },  
  "windows": {
    "meta[name='msapplication-TileColor']": "<meta name='msapplication-TileColor' content='#FFFFFF'>",
    "meta[name='msapplication-TileImage'][content$='mstile-144x144.png']": "<meta name='msapplication-TileImage' content='mstile-144x144.png'>",
    "meta[name='msapplication-config'][content$='browserconfig.xml']": "<meta name='msapplication-config' content='browserconfig.xml'>"
  },
  "yandex": {
    "link[rel='yandex-tableau-widget'][href$='yandex-browser-manifest.json']": "<link rel='yandex-tableau-widget' href='yandex-browser-manifest.json'>"
  },
  "opengraph": {
    "meta[property='og:title'][content$='Application']": "<meta property='og:title' content='Application'>",
    "meta[property='og:type'][content$='website']": "<meta property='og:type' content='website'>",
    "meta[property='og:url'][content$='url']": "<meta property='og:url' content='url'>",
    "meta[property='og:image'][content$='opengraph-1200x630.png']": "<meta property='og:image' content='opengraph-1200x630.png'>",
    "meta[property='og:description'][content$='description']": "<meta property='og:description' content='description'>",
    "meta[property='og:locale'][content$='locale']": "<meta property='og:locale' content='locale'>"
  }
}
