{
  "android": {
    "android-chrome-36x36.png": {
      "width": 36,
      "height": 36,
      "transparent": true,
      "rotate": false,
      "mask": false
    },
    "android-chrome-48x48.png": {
      "width": 48,
      "height": 48,
      "transparent": true,
      "rotate": false,
      "mask": false
    },
    "android-chrome-72x72.png": {
      "width": 72,
      "height": 72,
      "transparent": true,
      "rotate": false,
      "mask": false
    },
    "android-chrome-96x96.png": {
      "width": 96,
      "height": 96,
      "transparent": true,
      "rotate": false,
      "mask": false
    },
    "android-chrome-144x144.png": {
      "width": 144,
      "height": 144,
      "transparent": true,
      "rotate": false,
      "mask": false
    },
    "android-chrome-192x192.png": {
      "width": 192,
      "height": 192,
      "transparent": true,
      "rotate": false,
      "mask": false
    },
    "android-chrome-256x256.png": {
      "width": 256,
      "height": 256,
      "transparent": true,
      "rotate": false,
      "mask": false
    },
    "android-chrome-384x384.png": {
      "width": 384,
      "height": 384,
      "transparent": true,
      "rotate": false,
      "mask": false
    },
    "android-chrome-512x512.png": {
      "width": 512,
      "height": 512,
      "transparent": true,
      "rotate": false,
      "mask": false
    }
  },
  "appleIcon": {
    "apple-touch-icon-57x57.png": {
      "width": 57,
      "height": 57,
      "transparent": false,
      "rotate": false,
      "mask": false
    },
    "apple-touch-icon-60x60.png": {
      "width": 60,
      "height": 60,
      "transparent": false,
      "rotate": false,
      "mask": false
    },
    "apple-touch-icon-72x72.png": {
      "width": 72,
      "height": 72,
      "transparent": false,
      "rotate": false,
      "mask": false
    },
    "apple-touch-icon-76x76.png": {
      "width": 76,
      "height": 76,
      "transparent": false,
      "rotate": false,
      "mask": false
    },
    "apple-touch-icon-114x114.png": {
      "width": 114,
      "height": 114,
      "transparent": false,
      "rotate": false,
      "mask": false
    },
    "apple-touch-icon-120x120.png": {
      "width": 120,
      "height": 120,
      "transparent": false,
      "rotate": false,
      "mask": false
    },
    "apple-touch-icon-144x144.png": {
      "width": 144,
      "height": 144,
      "transparent": false,
      "rotate": false,
      "mask": false
    },
    "apple-touch-icon-152x152.png": {
      "width": 152,
      "height": 152,
      "transparent": false,
      "rotate": false,
      "mask": false
    },
    "apple-touch-icon-167x167.png": {
      "width": 167,
      "height": 167,
      "transparent": false,
      "rotate": false,
      "mask": false
    },
    "apple-touch-icon-180x180.png": {
      "width": 180,
      "height": 180,
      "transparent": false,
      "rotate": false,
      "mask": false
    },
    "apple-touch-icon.png": {
      "width": 180,
      "height": 180,
      "transparent": false,
      "rotate": false,
      "mask": false
    },
    "apple-touch-icon-precomposed.png": {
      "width": 180,
      "height": 180,
      "transparent": false,
      "rotate": false,
      "mask": false
    }
  },
  "appleStartup": {
    "apple-touch-startup-image-320x460.png": {
      "width": 320,
      "height": 460,
      "transparent": false,
      "rotate": false,
      "mask": false
    },
    "apple-touch-startup-image-640x920.png": {
      "width": 640,
      "height": 920,
      "transparent": false,
      "rotate": false,
      "mask": false
    },
    "apple-touch-startup-image-640x1096.png": {
      "width": 640,
      "height": 1096,
      "transparent": false,
      "rotate": false,
      "mask": false
    },
    "apple-touch-startup-image-748x1024.png": {
      "width": 748,
      "height": 1024,
      "transparent": false,
      "rotate": true,
      "mask": false
    },
    "apple-touch-startup-image-750x1294.png": {
      "width": 750,
      "height": 1294,
      "transparent": false,
      "rotate": false,
      "mask": false
    },
    "apple-touch-startup-image-768x1004.png": {
      "width": 768,
      "height": 1004,
      "transparent": false,
      "rotate": false,
      "mask": false
    },
    "apple-touch-startup-image-1182x2208.png": {
      "width": 1182,
      "height": 2208,
      "transparent": false,
      "rotate": true,
      "mask": false
    },
    "apple-touch-startup-image-1242x2148.png": {
      "width": 1242,
      "height": 2148,
      "transparent": false,
      "rotate": false,
      "mask": false
    },
    "apple-touch-startup-image-1496x2048.png": {
      "width": 1496,
      "height": 2048,
      "transparent": false,
      "rotate": true,
      "mask": false
    },
    "apple-touch-startup-image-1536x2008.png": {
      "width": 1536,
      "height": 2008,
      "transparent": false,
      "rotate": false,
      "mask": false
    }
  },
  "coast": {
    "coast-228x228.png": {
      "width": 228,
      "height": 228,
      "transparent": false,
      "rotate": false,
      "mask": false
    }
  },
  "favicons": {
    "favicon-16x16.png": {
      "width": 16,
      "height": 16,
      "transparent": true,
      "rotate": false,
      "mask": false
    },
    "favicon-32x32.png": {
      "width": 32,
      "height": 32,
      "transparent": true,
      "rotate": false,
      "mask": false
    },
    "favicon.ico": {
      "sizes": [{
        "width": 16,
        "height": 16
      }, {
        "width": 24,
        "height": 24
      }, {
        "width": 32,
        "height": 32
      }, {
        "width": 48,
        "height": 48
      }, {
        "width": 64,
        "height": 64
      }],
      "transparent": true,
      "rotate": false,
      "mask": false
    }
  },
  "firefox": {
    "firefox_app_60x60.png": {
      "width": 60,
      "height": 60,
      "transparent": false,
      "rotate": false,
      "mask": true
    },
    "firefox_app_128x128.png": {
      "width": 128,
      "height": 128,
      "transparent": false,
      "rotate": false,
      "mask": true
    },
    "firefox_app_512x512.png": {
      "width": 512,
      "height": 512,
      "transparent": false,
      "rotate": false,
      "mask": true
    }
  },
  "windows": {
    "mstile-70x70.png": {
      "width": 128,
      "height": 128,
      "transparent": true,
      "rotate": false,
      "mask": false
    },
    "mstile-144x144.png": {
      "width": 144,
      "height": 144,
      "transparent": true,
      "rotate": false,
      "mask": false
    },
    "mstile-150x150.png": {
      "width": 270,
      "height": 270,
      "transparent": true,
      "rotate": false,
      "mask": false
    },
    "mstile-310x150.png": {
      "width": 558,
      "height": 270,
      "transparent": true,
      "rotate": false,
      "mask": false
    },
    "mstile-310x310.png": {
      "width": 558,
      "height": 558,
      "transparent": true,
      "rotate": false,
      "mask": false
    }
  },
  "yandex": {
    "yandex-browser-50x50.png": {
      "width": 50,
      "height": 50,
      "transparent": true,
      "rotate": false,
      "mask": false
    }
  },
  "opengraph": {
    "opengraph-1200x630.png": {
      "width": 1200,
      "height": 630,
      "transparent": false,
      "rotate": false,
      "mask": false
    }
  }
}